{
	"global": {},
	"env:development": {},
	"env:test": {},
	"env:production": {},
	"os:android": {},
	"os:blackberry": {},
	"os:ios": {},
	"os:mobileweb": {},
	"os:windows": {},
	"dependencies": {
        "headerView": "1.0",
        "com.ddecor.pagingcontrol":"0.1"
    }
}